CPI Financial Forecast
…
## # A tibble: 6 × 6
##    year period periodName value seriesID    date      
##   <dbl> <chr>  <chr>      <dbl> <chr>       <date>    
## 1  2023 M07    July        306. CUUR0000SA0 2023-07-01
## 2  2023 M08    August      307. CUUR0000SA0 2023-08-01
## 3  2023 M09    September   308. CUUR0000SA0 2023-09-01
## 4  2023 M10    October     308. CUUR0000SA0 2023-10-01
## 5  2023 M11    November    307. CUUR0000SA0 2023-11-01
## 6  2023 M12    December    307. CUUR0000SA0 2023-12-01

## # A tibble: 1,066 × 6
##     year period periodName value seriesID    date      
##    <dbl> <chr>  <chr>      <dbl> <chr>       <date>    
##  1  1913 M01    January      9.8 CUUR0000SA0 1913-01-01
##  2  1913 M02    February     9.8 CUUR0000SA0 1913-02-01
##  3  1913 M03    March        9.8 CUUR0000SA0 1913-03-01
##  4  1913 M04    April        9.8 CUUR0000SA0 1913-04-01
##  5  1913 M05    May          9.7 CUUR0000SA0 1913-05-01
##  6  1913 M06    June         9.8 CUUR0000SA0 1913-06-01
##  7  1913 M07    July         9.9 CUUR0000SA0 1913-07-01
##  8  1913 M08    August       9.9 CUUR0000SA0 1913-08-01
##  9  1913 M09    September   10   CUUR0000SA0 1913-09-01
## 10  1913 M10    October     10   CUUR0000SA0 1913-10-01
## # ℹ 1,056 more rows

## # A tibble: 266 × 6
##     year period periodName value seriesID    date      
##    <dbl> <chr>  <chr>      <dbl> <chr>       <date>    
##  1  2001 M11    November    177. CUUR0000SA0 2001-11-01
##  2  2001 M12    December    177. CUUR0000SA0 2001-12-01
##  3  2002 M01    January     177. CUUR0000SA0 2002-01-01
##  4  2002 M02    February    178. CUUR0000SA0 2002-02-01
##  5  2002 M03    March       179. CUUR0000SA0 2002-03-01
##  6  2002 M04    April       180. CUUR0000SA0 2002-04-01
##  7  2002 M05    May         180. CUUR0000SA0 2002-05-01
##  8  2002 M06    June        180. CUUR0000SA0 2002-06-01
##  9  2002 M07    July        180. CUUR0000SA0 2002-07-01
## 10  2002 M08    August      181. CUUR0000SA0 2002-08-01
## # ℹ 256 more rows
…
## # A tibble: 266 × 8
##     year period periodName value seriesID    date        pred error
##    <dbl> <chr>  <chr>      <dbl> <chr>       <date>     <dbl> <dbl>
##  1  2001 M11    November    177. CUUR0000SA0 2001-11-01  179.     1
##  2  2001 M12    December    177. CUUR0000SA0 2001-12-01  179.     1
##  3  2002 M01    January     177. CUUR0000SA0 2002-01-01  180.     1
##  4  2002 M02    February    178. CUUR0000SA0 2002-02-01  180.     1
##  5  2002 M03    March       179. CUUR0000SA0 2002-03-01  181.     1
##  6  2002 M04    April       180. CUUR0000SA0 2002-04-01  181.     1
##  7  2002 M05    May         180. CUUR0000SA0 2002-05-01  182.     1
##  8  2002 M06    June        180. CUUR0000SA0 2002-06-01  182.     1
##  9  2002 M07    July        180. CUUR0000SA0 2002-07-01  182.     1
## 10  2002 M08    August      181. CUUR0000SA0 2002-08-01  182.     1
## # ℹ 256 more rows
…
